%YAML 1.1
%TAG !u! tag:unity3d.com,2011:
--- !u!1045 &1
EditorBuildSettings:
  m_ObjectHideFlags: 0
  serializedVersion: 2
  m_Scenes:
  - enabled: 1
    path: Assets/Scenes/MainScene.unity
    guid: 743ebd71868b8f640a43517996959356
  - enabled: 1
    path: Assets/Scenes/OnlineScene.unity
    guid: 700e6a1e2c914b141bd612cd0311ddd2
  - enabled: 1
    path: Assets/Scenes/PlayScene.unity
    guid: 2cda990e2423bbf4892e6590ba056729
  m_configObjects: {}
